[
  {
    "description": "Add support for WAIT_INTERVAL variable for deploy state. Now you could tune time to wait between polling for deployment to complete (in seconds). Default: '15'.",
    "type": "minor"
  }
]