{
  "changes": [
    {
      "description": "Internal maintenance: Update bitbucket-pipes-toolkit to fix vulnerability with certify CVE-2023-37920.",
      "type": "minor"
    }
  ],
  "created_at": "2023-08-14T19:23:44.338086+00:00",
  "version": "1.3.0"
}